Surface Area Analysis
…
## Auto-refreshing stale OAuth token.

## File downloaded:

## * 'SA Meshlab Data - Kamryn' <id: 1C1deEPnb07YcvbEngx_OV3Xl-C740sBefoaum154OyY>

## Saved locally as:

## * '../data/saDatasetDL.xlsx'

dlsa <- read_excel("../data/saDatasetDL.xlsx", sheet = 3)

dlsa

## # A tibble: 36 x 9
##    timepoint species genotype id    trial treatment    SA SAgrowth overallSAGrowth
##    <chr>     <chr>      <dbl> <chr> <dbl> <chr>     <dbl>    <dbl>           <dbl>
##  1 T0        DL             1 DL01      1 wild      254.      NA              NA  
##  2 T3        DL             1 DL01      1 wild      259.      NA              NA  
##  3 T6        DL             1 DL01      1 wild      269.      14.9            14.9
##  4 T0        DL             1 DL01      1 frag       59.1     NA              NA  
##  5 T3        DL             1 DL01      1 frag      115.      NA              NA  
##  6 T6        DL             1 DL01      1 frag      183.     124.             NA  
##  7 T0        DL             1 DL01      2 frag       68.0     NA              NA  
##  8 T3        DL             1 DL01      2 frag       94.3     NA              NA  
##  9 T6        DL             1 DL01      2 frag      136.      68.0            NA  
## 10 T0        DL             1 DL01      3 frag       75.9     NA              NA  
## # ... with 26 more rows
…
## File downloaded:

## * 'SA Meshlab Data - Kamryn' <id: 1C1deEPnb07YcvbEngx_OV3Xl-C740sBefoaum154OyY>

## Saved locally as:

## * '../data/saDatasetPC.xlsx'

pcsa <- read_excel("../data/saDatasetPC.xlsx", sheet = 4)

pcsa

## # A tibble: 36 x 9
##    timepoint species genotype id    trial treatment    SA SAgrowth overallSAGrowth
##    <chr>     <chr>      <dbl> <chr> <dbl> <chr>     <dbl>    <dbl>           <dbl>
##  1 T0        PC            13 PC13      3 wild      218.     NA              NA   
##  2 T3        PC            13 PC13      3 wild      222.     NA              NA   
##  3 T6        PC            13 PC13      3 wild      224.      6.70            6.70
##  4 T0        PC            13 PC13      1 frag       64.5    NA              NA   
##  5 T3        PC            13 PC13      1 frag      143.     NA              NA   
##  6 T6        PC            13 PC13      1 frag      195.    130.             NA   
##  7 T0        PC            13 PC13      2 frag       73.6    NA              NA   
##  8 T3        PC            13 PC13      2 frag      122.     NA              NA   
##  9 T6        PC            13 PC13      2 frag      176.    103.             NA   
## 10 T0        PC            13 PC13      3 frag       72.4    NA              NA   
## # ... with 26 more rows
…
## File downloaded:

## * 'SA Meshlab Data - Kamryn' <id: 1C1deEPnb07YcvbEngx_OV3Xl-C740sBefoaum154OyY>

## Saved locally as:

## * '../data/saDatasetPS.xlsx'

pssa <- read_excel("../data/saDatasetPS.xlsx", sheet = 5)

pssa

## # A tibble: 60 x 9
##    timepoint species genotype id    trial treatment    SA SAgrowth overallSAGrowth
##    <chr>     <chr>      <dbl> <chr> <dbl> <chr>     <dbl>    <dbl>           <dbl>
##  1 T0        PS             7 PS07      3 wild      161.      NA              NA  
##  2 T3        PS             7 PS07      3 wild      180.      NA              NA  
##  3 T6        PS             7 PS07      3 wild      195.      34.3            34.3
##  4 T0        PS             7 PS07      1 frag       64.4     NA              NA  
##  5 T3        PS             7 PS07      1 frag      106.      NA              NA  
##  6 T6        PS             7 PS07      1 frag      145.      80.3            NA  
##  7 T0        PS             7 PS07      2 frag       69.4     NA              NA  
##  8 T3        PS             7 PS07      2 frag      100.      NA              NA  
##  9 T6        PS             7 PS07      2 frag      150.      80.4            NA  
## 10 T0        PS             7 PS07      3 frag       71.8     NA              NA  
## # ... with 50 more rows
…
## File downloaded:

## * 'SA Meshlab Data - Kamryn' <id: 1C1deEPnb07YcvbEngx_OV3Xl-C740sBefoaum154OyY>

## Saved locally as:

## * '../data/saDatasetTotal.xlsx'

total <- read_excel("../data/saDatasetTotal.xlsx", sheet = 1)

total

## # A tibble: 132 x 15
##    timePoint species genotype id    trial treatment `scale 1` `scale 2` `scale 3`
##    <chr>     <chr>      <dbl> <chr> <dbl> <chr>         <dbl>     <dbl>     <dbl>
##  1 initial   DL             1 DL1       1 wild          1.27      1.18      1.21 
##  2 initial   PC            16 PC16      1 wild          0.227     0.227     0.237
##  3 initial   PS            13 PS13      1 wild          1.87      1.86      1.84 
##  4 initial   PS            14 PS14      1 wild          1.77      1.82      1.77 
##  5 initial   DL             1 DL1       1 frag          2.02      1.93      2.00 
##  6 initial   DL             2 DL2       1 frag          1.19      1.21      1.21 
##  7 initial   DL             3 DL3       1 frag          0.707     0.709     0.712
##  8 initial   PC            13 PC13      1 frag          1.44      1.43      1.46 
##  9 initial   PC            15 PC15      1 frag          1.01      0.987     1.01 
## 10 initial   PC            16 PC16      1 frag          1.05      1.00      1.00 
## # ... with 122 more rows, and 6 more variables: average <dbl>, scaleFactor <dbl>,
## #   surfaceArea (cm^2) <dbl>, ryanSA <dbl>, notes <chr>, t6-t0 <dbl>
…
